{
  "currentPage": 1,
  "hasNextPage": true,
  "totalPages": 5084,
  "totalResults": 76256,
  "results": [
    {
      "id": "140596",
      "malId": 50197,
      "title": {
        "romaji": "Ijiranaide, Nagatoro-san 2nd Attack",
        "english": "DON'T TOY WITH ME, MISS NAGATORO 2nd Attack",
        "native": "イジらないで、長瀞さん 2nd Attack",
        "userPreferred": "Ijiranaide, Nagatoro-san 2nd Attack"
      },
      "image": "https://s4.anilist.co/file/anilistcdn/media/anime/cover/large/bx140596-RP415uHlXSVr.jpg",
      "rating": 72,
      "color": "#e4ae50",
      "episodeId": "cldg9omsi000266pkc9gdd6mi-enime",
      "episodeTitle": "So This Is Your Room, Huh, Senpai?",
      "episodeNumber": 5,
      "genres": [
        "Comedy",
        "Slice of Life",
        "Romance"
      ],
      "type": "TV"
    },
    {
      "id": "146346",
      "malId": 51265,
      "title": {
        "romaji": "Inu ni Nattara Suki na Hito ni Hirowareta.",
        "english": "My Life as Inukai-san’s Dog",
        "native": "犬になったら好きな人に拾われた。",
        "userPreferred": "Inu ni Nattara Suki na Hito ni Hirowareta."
      },
      "image": "https://s4.anilist.co/file/anilistcdn/media/anime/cover/large/bx146346-SxMOcEIxWix7.png",
      "rating": 52,
      "color": "#f1e493",
      "episodeId": "cldnb1lv00000r8pk5v0a6gi6-enime",
      "episodeTitle": "Runaway",
      "episodeNumber": 5,
      "genres": [
        "Comedy",
        "Supernatural",
        "Romance",
        "Ecchi"
      ],
      "type": "TV_SHORT"
    },
    {
      "id": "155211",
      "malId": 53111,
      "title": {
        "romaji": "Dungeon ni Deai wo Motomeru no wa Machigatteiru Darou ka IV: Shin Shou Yakusai-hen",
        "english": "Is It Wrong to Try to Pick Up Girls in a Dungeon? IV Part 2",
        "native": "ダンジョンに出会いを求めるのは間違っているだろうかⅣ 深章 厄災篇",
        "userPreferred": "Dungeon ni Deai wo Motomeru no wa Machigatteiru Darou ka IV: Shin Shou Yakusai-hen"
      },
      "image": "https://s4.anilist.co/file/anilistcdn/media/anime/cover/large/bx155211-gWaYXaGmWBXs.png",
      "rating": 77,
      "color": "#2878f1",
      "episodeId": "cldn87gis000455pkcyna2ya3-enime",
      "episodeTitle": "Welf Crozzo | Shikou",
      "episodeNumber": 5,
      "genres": [
        "Action",
        "Fantasy",
        "Adventure",
        "Comedy",
        "Romance"
      ],
      "type": "TV"
    },
    {
      "id": "148116",
      "malId": 51711,
      "title": {
        "romaji": "Hyouken no Majutsushi ga Sekai wo Suberu",
        "english": "The Iceblade Sorcerer Shall Rule the World",
        "native": "冰剣の魔術師が世界を統べる",
        "userPreferred": "Hyouken no Majutsushi ga Sekai wo Suberu"
      },
      "image": "https://s4.anilist.co/file/anilistcdn/media/anime/cover/large/bx148116-t6E73U8SJhYD.jpg",
      "rating": 63,
      "color": "#4378e4",
      "episodeId": "cldng0g480002bxpkeei96ki3-enime",
      "episodeTitle": "The Boy Who Became the World`s Strongest Sorcerer Has an Unexpected Meeting on the Battlefield",
      "episodeNumber": 5,
      "genres": [
        "Action",
        "Fantasy",
        "Adventure"
      ],
      "type": "TV"
    },
    {
      "id": "143277",
      "malId": 50710,
      "title": {
        "romaji": "Urusei Yatsura (2022)",
        "english": "Urusei Yatsura (2022)",
        "native": "うる星やつら (2022)",
        "userPreferred": "Urusei Yatsura (2022)"
      },
      "image": "https://s4.anilist.co/file/anilistcdn/media/anime/cover/large/bx143277-BJYg1aFUE8tV.jpg",
      "rating": 71,
      "color": "#1ad6bb",
      "episodeId": "cldnfarnq0000bxpkcwyi9xxz-enime",
      "episodeTitle": "Family Feud!! / Hello, Sailor Suit!!",
      "episodeNumber": 16,
      "genres": [
        "Comedy",
        "Supernatural",
        "Romance",
        "Sci-Fi"
      ],
      "type": "TV"
    },
    {
      "id": "147864",
      "malId": 51678,
      "title": {
        "romaji": "Onii-chan wa Oshimai!",
        "english": "ONIMAI: I'm Now Your Sister!",
        "native": "お兄ちゃんはおしまい！",
        "userPreferred": "Onii-chan wa Oshimai!"
      },
      "image": "https://s4.anilist.co/file/anilistcdn/media/anime/cover/large/bx147864-Idb77ylQTTBh.png",
      "rating": 71,
      "color": "#c9f1f1",
      "episodeId": "cldnbtgrl0002r8pkedkwee34-enime",
      "episodeTitle": "Mahiro Discovers Adventure and Social Gatherings",
      "episodeNumber": 5,
      "genres": [
        "Comedy",
        "Slice of Life"
      ],
      "type": "TV"
    },
    {
      "id": "146323",
      "malId": 51252,
      "title": {
        "romaji": "Spy Kyoushitsu",
        "english": "Spy Classroom",
        "native": "スパイ教室",
        "userPreferred": "Spy Kyoushitsu"
      },
      "image": "https://s4.anilist.co/file/anilistcdn/media/anime/cover/large/bx146323-vyj1w1VRgDN7.png",
      "rating": 62,
      "color": "#50a1e4",
      "episodeId": "cldn87elk000355pk3nazdfao-enime",
      "episodeTitle": "FILE: Lamplight Days",
      "episodeNumber": 5,
      "genres": [
        "Action",
        "Comedy",
        "Drama",
        "Mystery"
      ],
      "type": "TV"
    }
  ]
}